[gd_scene load_steps=4 format=2]

[ext_resource path="res://scenes/player/Player.gd" type="Script" id=1]

[sub_resource type="BoxShape" id=1]
extents = Vector3( 0.2, 0.8, 0.2 )

[sub_resource type="CapsuleShape" id=2]
radius = 0.381624
height = 0.795486

[node name="KinematicBody" type="KinematicBody"]
script = ExtResource( 1 )

[node name="CollisionShape" type="CollisionShape" parent="."]
transform = Transform( 1, 0, 0, 0, 1, 0, 0, 0, 1, 0, 0.8, 0 )
shape = SubResource( 1 )

[node name="CollisionShape2" type="CollisionShape" parent="."]
transform = Transform( 1, 0, 0, 0, -4.37114e-08, 1, 0, -1, -4.37114e-08, 0, 0.8, 0 )
shape = SubResource( 2 )

[node name="CameraPivot" type="Spatial" parent="."]
transform = Transform( 1, 0, 0, 0, 1, 0, 0, 0, 1, 0, 1.5, 0 )

[node name="Camera" type="Camera" parent="CameraPivot"]
